App_Name: 10000+ Latest Blouse Designs Collection 2019

Package_Name: com.magnus.latest.blousedesign.scollection2019

Account: mindgame.soft15@gmail.com

App_Id: ca-app-pub-2029358398488666~8280374844

banner: ca-app-pub-2029358398488666/8460515859

Interstitial: ca-app-pub-2029358398488666/1484043962

Git_Link: https://mindgamesoft01@bitbucket.org/mindgamesoft01/10000-latest-blouse-designs-collection-2019-magnusfashionstore.git